---
http_interactions:
- request:
    method: get
    uri: https://api.flickr.com/services/rest/?api_key=147f5ca86e2cf248e2385e3d50d3577f&format=json&method=flickr.photos.search&nojsoncallback=1&text=gnu
    body:
      encoding: US-ASCII
      string: ''
    headers:
      Accept-Encoding:
      - gzip;q=1.0,deflate;q=0.6,identity;q=0.3
      Accept:
      - "*/*"
      User-Agent:
      - Ruby
      Host:
      - api.flickr.com
  response:
    status:
      code: 200
      message: OK
    headers:
      Content-Type:
      - application/json
      Transfer-Encoding:
      - chunked
      Connection:
      - keep-alive
      Date:
      - Sun, 18 Apr 2021 19:20:33 GMT
      Server:
      - Apache/2.4.46 (Ubuntu)
      Set-Cookie:
      - ccc=%7B%22needsConsent%22%3Atrue%2C%22managed%22%3A0%2C%22changed%22%3A0%2C%22info%22%3A%7B%22cookieBlock%22%3A%7B%22level%22%3A0%2C%22blockRan%22%3A0%7D%7D%7D;
        expires=Tue, 18-May-2021 19:20:33 GMT; Max-Age=2592000; path=/; domain=.flickr.com
      - ccc=%7B%22needsConsent%22%3Atrue%2C%22managed%22%3A0%2C%22changed%22%3A0%2C%22info%22%3A%7B%22cookieBlock%22%3A%7B%22level%22%3A0%2C%22blockRan%22%3A1%7D%7D%7D;
        expires=Tue, 18-May-2021 19:20:33 GMT; Max-Age=2592000; path=/; domain=.flickr.com
      X-Content-Type-Options:
      - nosniff
      X-Frame-Options:
      - SAMEORIGIN
      X-Cache:
      - Miss from cloudfront
      Via:
      - 1.1 b1d2f89f3441d5c7e661028fba49a636.cloudfront.net (CloudFront)
      X-Amz-Cf-Pop:
      - LIS50-C1
      X-Amz-Cf-Id:
      - 8chNZ2o_lZ-IfMDbt8C-XwvK0aUDQZ7sB7kc2GetyKFHVnRbbR4ONQ==
    body:
      encoding: UTF-8
      string: '{"photos":{"page":1,"pages":787,"perpage":100,"total":"78642","photo":[{"id":"51119821508","owner":"11555596@N02","secret":"2a0a0d9cb4","server":"65535","farm":66,"title":"Antelopes.
        Blue Wildebeest.. Kruger National Park. South Africa. Mar\/2021","ispublic":1,"isfriend":0,"isfamily":0},{"id":"51120707535","owner":"11555596@N02","secret":"1b170755be","server":"65535","farm":66,"title":"Antelopes.
        Blue Wildebeest.. Kruger National Park. South Africa. Mar\/2021","ispublic":1,"isfriend":0,"isfamily":0},{"id":"51119662859","owner":"11555596@N02","secret":"e2c8f29e9b","server":"65535","farm":66,"title":"Antelopes.
        Blue Wildebeest.. Kruger National Park. South Africa. Mar\/2021","ispublic":1,"isfriend":0,"isfamily":0},{"id":"51119662769","owner":"11555596@N02","secret":"468dc4e6d5","server":"65535","farm":66,"title":"Antelopes.
        Blue Wildebeest.. Kruger National Park. South Africa. Mar\/2021","ispublic":1,"isfriend":0,"isfamily":0},{"id":"51120621590","owner":"124685594@N04","secret":"82b88611b7","server":"65535","farm":66,"title":"Reading
        Buses 1210 (KX59 GNU)","ispublic":1,"isfriend":0,"isfamily":0},{"id":"51114938110","owner":"124685594@N04","secret":"39f5f87ac4","server":"65535","farm":66,"title":"Reading
        Buses 1210 (KX59 GNU)","ispublic":1,"isfriend":0,"isfamily":0},{"id":"51108331847","owner":"77017456@N03","secret":"4571039b9f","server":"65535","farm":66,"title":"Wildebeest
        running and jumping","ispublic":1,"isfriend":0,"isfamily":0},{"id":"51107895232","owner":"154000018@N08","secret":"cc60e5bb00","server":"65535","farm":66,"title":"zebra
        and gnu (blue wildebeest)","ispublic":1,"isfriend":0,"isfamily":0},{"id":"51100985211","owner":"155732405@N03","secret":"9ef651a1ec","server":"65535","farm":66,"title":"School
        card board Project","ispublic":1,"isfriend":0,"isfamily":0},{"id":"51101080522","owner":"155732405@N03","secret":"dd4d6b5c51","server":"65535","farm":66,"title":"School
        card board Project","ispublic":1,"isfriend":0,"isfamily":0},{"id":"51100883187","owner":"189153502@N07","secret":"e088571e86","server":"65535","farm":66,"title":"El
        FPGA y otros dispositivos programables","ispublic":1,"isfriend":0,"isfamily":0},{"id":"51100222597","owner":"190497085@N06","secret":"1b16b2255f","server":"65535","farm":66,"title":"Formation
        WordPress","ispublic":1,"isfriend":0,"isfamily":0},{"id":"51098480412","owner":"192702255@N03","secret":"a5de970ea5","server":"65535","farm":66,"title":"Wild
        Afrika","ispublic":1,"isfriend":0,"isfamily":0},{"id":"51089744355","owner":"55658968@N00","secret":"be9674b6c1","server":"65535","farm":66,"title":"At
        Sony Park Ginza : \u9280\u5ea7\u30bd\u30cb\u30fc\u30d1\u30fc\u30af\u306b\u3066","ispublic":1,"isfriend":0,"isfamily":0},{"id":"51089477758","owner":"55658968@N00","secret":"5edf111937","server":"65535","farm":66,"title":"At
        Sony Park Ginza : \u9280\u5ea7\u30bd\u30cb\u30fc\u30d1\u30fc\u30af\u306b\u3066","ispublic":1,"isfriend":0,"isfamily":0},{"id":"51088933586","owner":"55658968@N00","secret":"34e203fb58","server":"65535","farm":66,"title":"At
        Sony Park Ginza : \u9280\u5ea7\u30bd\u30cb\u30fc\u30d1\u30fc\u30af\u306b\u3066","ispublic":1,"isfriend":0,"isfamily":0},{"id":"51081925578","owner":"40234133@N00","secret":"1bddb89571","server":"65535","farm":66,"title":"Young-zebra-in-the-clearing_DSC0123
        IN EXPLORE","ispublic":1,"isfriend":0,"isfamily":0},{"id":"50997252574","owner":"53507315@N06","secret":"725da220cb","server":"65535","farm":66,"title":"NJ09
        GNU - G&M Hartshorne","ispublic":1,"isfriend":0,"isfamily":0},{"id":"51080203703","owner":"55658968@N00","secret":"c2daeb6ffd","server":"65535","farm":66,"title":"Ginza
        Sony Park  : \u9280\u5ea7\u30bd\u30cb\u30fc\u30d1\u30fc\u30af","ispublic":1,"isfriend":0,"isfamily":0},{"id":"51009584010","owner":"86666094@N00","secret":"f9fb3538fd","server":"65535","farm":66,"title":"gnu-eyes","ispublic":1,"isfriend":0,"isfamily":0},{"id":"51075652021","owner":"192542675@N08","secret":"21e6a394a0","server":"65535","farm":66,"title":"Masai
        Mara","ispublic":1,"isfriend":0,"isfamily":0},{"id":"51006470250","owner":"192542675@N08","secret":"efbe0900fb","server":"65535","farm":66,"title":"Masai
        Mara","ispublic":1,"isfriend":0,"isfamily":0},{"id":"51006469380","owner":"192542675@N08","secret":"5b382dded7","server":"65535","farm":66,"title":"Masai
        Mara","ispublic":1,"isfriend":0,"isfamily":0},{"id":"51006469235","owner":"192542675@N08","secret":"17831921f5","server":"65535","farm":66,"title":"Masai
        Mara","ispublic":1,"isfriend":0,"isfamily":0},{"id":"51075752892","owner":"192542675@N08","secret":"574419309c","server":"65535","farm":66,"title":"Masai
        Mara","ispublic":1,"isfriend":0,"isfamily":0},{"id":"51075487642","owner":"11555596@N02","secret":"3631ffa5c4","server":"65535","farm":66,"title":"Antelopes.
        Springbok. Pilanesberg Game Reserve. South Africa. Jan\/2021","ispublic":1,"isfriend":0,"isfamily":0},{"id":"51075385731","owner":"11555596@N02","secret":"af53c57c05","server":"65535","farm":66,"title":"Antelopes.
        Springbok. Pilanesberg Game Reserve. South Africa. Jan\/2021","ispublic":1,"isfriend":0,"isfamily":0},{"id":"51075487557","owner":"11555596@N02","secret":"66b1e0ebf1","server":"65535","farm":66,"title":"Antelopes.
        Springbok. Pilanesberg Game Reserve. South Africa. Jan\/2021","ispublic":1,"isfriend":0,"isfamily":0},{"id":"51006205135","owner":"11555596@N02","secret":"9762701136","server":"65535","farm":66,"title":"Antelopes.
        Springbok. Pilanesberg Game Reserve. South Africa. Jan\/2021","ispublic":1,"isfriend":0,"isfamily":0},{"id":"51075385606","owner":"11555596@N02","secret":"525b43202f","server":"65535","farm":66,"title":"Antelopes.
        Springbok. Pilanesberg Game Reserve. South Africa. Jan\/2021","ispublic":1,"isfriend":0,"isfamily":0},{"id":"51075487452","owner":"11555596@N02","secret":"5c5c499233","server":"65535","farm":66,"title":"Antelopes.
        Springbok. Pilanesberg Game Reserve. South Africa. Jan\/2021","ispublic":1,"isfriend":0,"isfamily":0},{"id":"51006204700","owner":"11555596@N02","secret":"9043d0f9cd","server":"65535","farm":66,"title":"Antelopes.
        Blue Wildebeest. Pilanesberg Game Reserve. South Africa. Jan\/2021","ispublic":1,"isfriend":0,"isfamily":0},{"id":"51006204675","owner":"11555596@N02","secret":"7db88c0a42","server":"65535","farm":66,"title":"Antelopes.
        Blue Wildebeest. Pilanesberg Game Reserve. South Africa. Jan\/2021","ispublic":1,"isfriend":0,"isfamily":0},{"id":"51075486992","owner":"11555596@N02","secret":"5eb1fce0ef","server":"65535","farm":66,"title":"Antelopes.
        Blue Wildebeest. Pilanesberg Game Reserve. South Africa. Jan\/2021","ispublic":1,"isfriend":0,"isfamily":0},{"id":"51075486932","owner":"11555596@N02","secret":"9078e78725","server":"65535","farm":66,"title":"Antelopes.
        Blue Wildebeest. Pilanesberg Game Reserve. South Africa. Jan\/2021","ispublic":1,"isfriend":0,"isfamily":0},{"id":"51075384861","owner":"11555596@N02","secret":"1380e551c6","server":"65535","farm":66,"title":"Antelopes.
        Blue Wildebeest. Pilanesberg Game Reserve. South Africa. Jan\/2021","ispublic":1,"isfriend":0,"isfamily":0},{"id":"51074100796","owner":"189153502@N07","secret":"8627c29166","server":"65535","farm":66,"title":"SuiteCRM:
        un poderoso CRM de c\u00f3digo abierto","ispublic":1,"isfriend":0,"isfamily":0},{"id":"51069475658","owner":"55658968@N00","secret":"e4f540b1f2","server":"65535","farm":66,"title":"At
        Ginza Sony Plaza : \u9280\u5ea7\u30bd\u30cb\u30fc\u30d7\u30e9\u30b6","ispublic":1,"isfriend":0,"isfamily":0},{"id":"51070272307","owner":"55658968@N00","secret":"2bb3576e6f","server":"65535","farm":66,"title":"At
        Ginza Sony Plaza : \u9280\u5ea7\u30bd\u30cb\u30fc\u30d7\u30e9\u30b6","ispublic":1,"isfriend":0,"isfamily":0},{"id":"51000991155","owner":"55658968@N00","secret":"36df6dc27e","server":"65535","farm":66,"title":"Selfie
        at Ginza Sony Park : \u9280\u5ea7\u30bd\u30cb\u30fc\u30d1\u30fc\u30af\u306b\u3066\u81ea\u64ae\u308a","ispublic":1,"isfriend":0,"isfamily":0},{"id":"30428638274","owner":"132337785@N03","secret":"b894ea33c8","server":"65535","farm":66,"title":"1967
        Boeing 707-323C N8402 c\/n 19582 l\/n 639 American Airlines Phoenix Sky Harbor
        17Oct78","ispublic":1,"isfriend":0,"isfamily":0},{"id":"51064080542","owner":"11555596@N02","secret":"5beddabfc9","server":"0","farm":0,"title":"Antelopes.
        Blue Wildebeest. Kruger National Park. South Africa. Dec\/2020-Jan\/2021","ispublic":1,"isfriend":0,"isfamily":0},{"id":"51054711591","owner":"188594586@N08","secret":"1ba6c0a75a","server":"65535","farm":66,"title":"How
        to remove background noise  || How to download & install audacity software
        \ud83c\udfa7\ud83d\udd0a","ispublic":1,"isfriend":0,"isfamily":0},{"id":"51050496232","owner":"159442359@N08","secret":"8c180a19c8","server":"65535","farm":66,"title":"Dubuque
        Innovation Center","ispublic":1,"isfriend":0,"isfamily":0},{"id":"51048157726","owner":"55658968@N00","secret":"638ccc9c14","server":"65535","farm":66,"title":"At
        Ginza Sony Plaza : \u9280\u5ea7\u30bd\u30cb\u30fc\u30d7\u30e9\u30b6","ispublic":1,"isfriend":0,"isfamily":0},{"id":"51045662012","owner":"151520493@N08","secret":"415d6c8a65","server":"65535","farm":66,"title":"GNU_5192copy","ispublic":1,"isfriend":0,"isfamily":0},{"id":"51045661782","owner":"151520493@N08","secret":"86d174aee1","server":"65535","farm":66,"title":"GNU_5211copy","ispublic":1,"isfriend":0,"isfamily":0},{"id":"51045661607","owner":"151520493@N08","secret":"3259140bc4","server":"65535","farm":66,"title":"GNU_5320copy","ispublic":1,"isfriend":0,"isfamily":0},{"id":"51045571151","owner":"151520493@N08","secret":"2d2f0d4390","server":"65535","farm":66,"title":"GNU_5439copy","ispublic":1,"isfriend":0,"isfamily":0},{"id":"51045660187","owner":"151520493@N08","secret":"2e234a82cc","server":"65535","farm":66,"title":"GNU_5659copy","ispublic":1,"isfriend":0,"isfamily":0},{"id":"51107590073","owner":"158054906@N06","secret":"21382a5600","server":"0","farm":0,"title":"King
        Gnu- JAPAN","ispublic":1,"isfriend":0,"isfamily":0},{"id":"51101810963","owner":"138705729@N04","secret":"7b81fe2c5b","server":"65535","farm":66,"title":"Alexander
        Dennis Enviro 400 (KX59 GNU)","ispublic":1,"isfriend":0,"isfamily":0},{"id":"51101665957","owner":"138705729@N04","secret":"7baafb2f4c","server":"65535","farm":66,"title":"Alexander
        Dennis Enviro 400 (KX59 GNU)","ispublic":1,"isfriend":0,"isfamily":0},{"id":"51101665342","owner":"138705729@N04","secret":"a72900d481","server":"65535","farm":66,"title":"Alexander
        Dennis Enviro 400 (KX59 GNU)","ispublic":1,"isfriend":0,"isfamily":0},{"id":"51101665292","owner":"138705729@N04","secret":"07b90e0264","server":"65535","farm":66,"title":"Alexander
        Dennis Enviro 400 (KX59 GNU)","ispublic":1,"isfriend":0,"isfamily":0},{"id":"51100159923","owner":"192688018@N07","secret":"f59dc5eef6","server":"65535","farm":66,"title":"Connochaetes
        taurinus","ispublic":1,"isfriend":0,"isfamily":0},{"id":"51093100385","owner":"27974644@N07","secret":"a0da24f4bd","server":"65535","farm":66,"title":"Go
        North East The Angel Branded Wright Streetdeck\u2019s 6327 | NK67 GNU & 6329
        | NK67 GCX seen at Arnison Centre working services to Newcastle & Durham respectively","ispublic":1,"isfriend":0,"isfamily":0},{"id":"51082818978","owner":"42086102@N05","secret":"ca87ec07a6","server":"65535","farm":66,"title":"Blue
        Wilderbees - Kgokong (Connochaetes Taurinus)","ispublic":1,"isfriend":0,"isfamily":0},{"id":"51015785310","owner":"11555596@N02","secret":"ba9aab75b1","server":"65535","farm":66,"title":"Antelopes.
        Blue Wildebeest. Welgevonden Game Reserve. South Africa. Feb\/2021","ispublic":1,"isfriend":0,"isfamily":0},{"id":"51015785250","owner":"11555596@N02","secret":"22c913f88f","server":"65535","farm":66,"title":"Antelopes.
        Blue Wildebeest. Welgevonden Game Reserve. South Africa. Feb\/2021","ispublic":1,"isfriend":0,"isfamily":0},{"id":"51084968476","owner":"11555596@N02","secret":"3a4d9f7ef5","server":"65535","farm":66,"title":"Antelopes.
        Blue Wildebeest. Welgevonden Game Reserve. South Africa. Feb\/2021","ispublic":1,"isfriend":0,"isfamily":0},{"id":"51000042834","owner":"11555596@N02","secret":"2d8ef677fe","server":"65535","farm":66,"title":"Antelopes.
        Blue Wildebeest. Welgevonden Game Reserve. South Africa. Feb\/2021","ispublic":1,"isfriend":0,"isfamily":0},{"id":"51075388388","owner":"77017456@N03","secret":"643a1a90a0","server":"65535","farm":66,"title":"Elephants
        at waterhole - accompanied by Springbok and Wildebeest","ispublic":1,"isfriend":0,"isfamily":0},{"id":"51076138127","owner":"77017456@N03","secret":"39aed0352b","server":"65535","farm":66,"title":"Near
        wildebeest in the grasslands","ispublic":1,"isfriend":0,"isfamily":0},{"id":"51075926031","owner":"12639178@N07","secret":"93686bde71","server":"65535","farm":66,"title":"Tanzania:
        Geparden Br\u00fcder mit erlegtem Gnu Kalb","ispublic":1,"isfriend":0,"isfamily":0},{"id":"51074093078","owner":"192374369@N04","secret":"5357145d83","server":"65535","farm":66,"title":"gnu-bash","ispublic":1,"isfriend":0,"isfamily":0},{"id":"51071905703","owner":"190789557@N07","secret":"90816bc432","server":"65535","farm":66,"title":"Paroles
        de Bubblegum par Gnu","ispublic":1,"isfriend":0,"isfamily":0},{"id":"51051170513","owner":"192590704@N08","secret":"73e1ff969c","server":"65535","farm":66,"title":"DEBO
        GNU","ispublic":1,"isfriend":0,"isfamily":0},{"id":"51051982792","owner":"192590704@N08","secret":"7ec570ac92","server":"65535","farm":66,"title":"DEBO
        GNU","ispublic":1,"isfriend":0,"isfamily":0},{"id":"51051899171","owner":"192590704@N08","secret":"8e5dd3d3f0","server":"65535","farm":66,"title":"DEBO
        GNU","ispublic":1,"isfriend":0,"isfamily":0},{"id":"51048417511","owner":"130175691@N02","secret":"3b80276f61","server":"65535","farm":66,"title":"ABC
        Gnu","ispublic":1,"isfriend":0,"isfamily":0},{"id":"51045574131","owner":"151520493@N08","secret":"9a3ca43ffd","server":"65535","farm":66,"title":"GNU_4643copy","ispublic":1,"isfriend":0,"isfamily":0},{"id":"51045573906","owner":"151520493@N08","secret":"eb779a53e0","server":"65535","farm":66,"title":"GNU_4660copy","ispublic":1,"isfriend":0,"isfamily":0},{"id":"51045573761","owner":"151520493@N08","secret":"f6dba97f55","server":"65535","farm":66,"title":"GNU_4674copy","ispublic":1,"isfriend":0,"isfamily":0},{"id":"51044842353","owner":"151520493@N08","secret":"dea5c3c284","server":"65535","farm":66,"title":"GNU_4685copy","ispublic":1,"isfriend":0,"isfamily":0},{"id":"51045573591","owner":"151520493@N08","secret":"48b098fdcd","server":"65535","farm":66,"title":"GNU_4722copy","ispublic":1,"isfriend":0,"isfamily":0},{"id":"51045573501","owner":"151520493@N08","secret":"844ec3a47d","server":"65535","farm":66,"title":"GNU_4819copy","ispublic":1,"isfriend":0,"isfamily":0},{"id":"51045663052","owner":"151520493@N08","secret":"1e73eee6f4","server":"65535","farm":66,"title":"GNU_4824copy","ispublic":1,"isfriend":0,"isfamily":0},{"id":"51045573251","owner":"151520493@N08","secret":"46cd55fa58","server":"65535","farm":66,"title":"GNU_4851copy","ispublic":1,"isfriend":0,"isfamily":0},{"id":"51045573156","owner":"151520493@N08","secret":"309c335caf","server":"65535","farm":66,"title":"GNU_4896copy","ispublic":1,"isfriend":0,"isfamily":0},{"id":"51045662757","owner":"151520493@N08","secret":"aecdee7830","server":"65535","farm":66,"title":"GNU_4937copy","ispublic":1,"isfriend":0,"isfamily":0},{"id":"51045573001","owner":"151520493@N08","secret":"5c98935da4","server":"65535","farm":66,"title":"GNU_4960copy","ispublic":1,"isfriend":0,"isfamily":0},{"id":"51045662457","owner":"151520493@N08","secret":"8fcc4a2204","server":"65535","farm":66,"title":"GNU_5017copy","ispublic":1,"isfriend":0,"isfamily":0},{"id":"51045662357","owner":"151520493@N08","secret":"122fd22283","server":"65535","farm":66,"title":"GNU_5024copy","ispublic":1,"isfriend":0,"isfamily":0},{"id":"51044841318","owner":"151520493@N08","secret":"f9de1d3443","server":"65535","farm":66,"title":"GNU_5033copy","ispublic":1,"isfriend":0,"isfamily":0},{"id":"51045572446","owner":"151520493@N08","secret":"8172f6b21a","server":"65535","farm":66,"title":"GNU_5118copy","ispublic":1,"isfriend":0,"isfamily":0},{"id":"51045661492","owner":"151520493@N08","secret":"fa156564dc","server":"65535","farm":66,"title":"GNU_5382copy","ispublic":1,"isfriend":0,"isfamily":0},{"id":"51045661177","owner":"151520493@N08","secret":"1f45a22a31","server":"65535","farm":66,"title":"GNU_5400copy","ispublic":1,"isfriend":0,"isfamily":0},{"id":"51044839688","owner":"151520493@N08","secret":"10cbf79205","server":"65535","farm":66,"title":"GNU_5459copy","ispublic":1,"isfriend":0,"isfamily":0},{"id":"51044839438","owner":"151520493@N08","secret":"5f786ff798","server":"65535","farm":66,"title":"GNU_5512copy","ispublic":1,"isfriend":0,"isfamily":0},{"id":"51045570256","owner":"151520493@N08","secret":"3bb1189484","server":"65535","farm":66,"title":"GNU_5681copy","ispublic":1,"isfriend":0,"isfamily":0},{"id":"51044838868","owner":"151520493@N08","secret":"29ed9f56a2","server":"65535","farm":66,"title":"GNU_5715copy","ispublic":1,"isfriend":0,"isfamily":0},{"id":"51045569836","owner":"151520493@N08","secret":"7040112b94","server":"65535","farm":66,"title":"GNU_5727copy","ispublic":1,"isfriend":0,"isfamily":0},{"id":"51045659427","owner":"151520493@N08","secret":"54243a409d","server":"65535","farm":66,"title":"GNU_5821copy","ispublic":1,"isfriend":0,"isfamily":0},{"id":"51045501271","owner":"151520493@N08","secret":"91813f2c65","server":"65535","farm":66,"title":"GNU_3493","ispublic":1,"isfriend":0,"isfamily":0},{"id":"51045591947","owner":"151520493@N08","secret":"2a55cfe081","server":"65535","farm":66,"title":"GNU_3522","ispublic":1,"isfriend":0,"isfamily":0},{"id":"51045501026","owner":"151520493@N08","secret":"2b2d01f5d7","server":"65535","farm":66,"title":"GNU_3664","ispublic":1,"isfriend":0,"isfamily":0},{"id":"51045591672","owner":"151520493@N08","secret":"f2238e92e1","server":"65535","farm":66,"title":"GNU_3689","ispublic":1,"isfriend":0,"isfamily":0},{"id":"51045500816","owner":"151520493@N08","secret":"e733f7bb85","server":"65535","farm":66,"title":"GNU_3931","ispublic":1,"isfriend":0,"isfamily":0},{"id":"51045500641","owner":"151520493@N08","secret":"91c0473e1a","server":"65535","farm":66,"title":"GNU_4065","ispublic":1,"isfriend":0,"isfamily":0}]},"stat":"ok"}'
  recorded_at: Sun, 18 Apr 2021 19:20:34 GMT
recorded_with: VCR 6.0.0
